…
### `{readr}`


```r
random_tbl <- readr::read_csv(file = 'random-data.csv')
#> Rows: 26 Columns: 4
#> -- Column specification -----------------------------------------------------
#> Delimiter: ","
#> chr (1): id
#> dbl (3): gaussian, gamma, uniform
#> 
#> i Use `spec()` to retrieve the full column specification for this data.
#> i Specify the column types or set `show_col_types = FALSE` to quiet this message.
print(random_tbl)
#> # A tibble: 26 x 4
#>   id    gaussian  gamma uniform
#>   <chr>    <dbl>  <dbl>   <dbl>
#> 1 a       -1.21  0.989   0.225 
#> 2 b        0.277 0.0381  0.0850
#> 3 c        1.08  1.09    0.637 
#> 4 d       -2.35  1.49    0.431 
#> 5 e        0.429 5.40    0.0727
#> 6 f        0.506 1.72    0.802 
#> # ... with 20 more rows
```
…
### WTF: Tibbles

#### Printing

- Default to first 10 rows and as many columns as will comfortably fit on your screen.

- Can adjust this behaviour in the print call:


```r
# print first three rows and all columns
print(random_tbl, n = 3, width = Inf)
#> # A tibble: 26 x 4
#>   id    gaussian  gamma uniform
#>   <chr>    <dbl>  <dbl>   <dbl>
#> 1 a       -1.21  0.989   0.225 
#> 2 b        0.277 0.0381  0.0850
#> 3 c        1.08  1.09    0.637 
#> # ... with 23 more rows
```
…
