…
In base R you can extract rows, columns and combinations thereof using index notation. 


```r
# First row
penguins[1, ]
#> # A tibble: 1 × 8
#>   species island    bill_length_mm bill_depth_mm flippe…¹ body_…² sex    year
#>   <fct>   <fct>              <dbl>         <dbl>    <int>   <int> <fct> <int>
#> 1 Adelie  Torgersen           39.1          18.7      181    3750 male   2007
#> # … with abbreviated variable names ¹​flipper_length_mm, ²​body_mass_g

# First Column 
penguins[ , 1]
#> # A tibble: 344 × 1
#>   species
#>   <fct>  
#> 1 Adelie 
#> 2 Adelie 
#> 3 Adelie 
#> 4 Adelie 
#> 5 Adelie 
#> 6 Adelie 
#> # … with 338 more rows
…
```r
# Drop all but first row
penguins[-(2:344), ]
#> # A tibble: 1 × 8
#>   species island    bill_length_mm bill_depth_mm flippe…¹ body_…² sex    year
#>   <fct>   <fct>              <dbl>         <dbl>    <int>   <int> <fct> <int>
#> 1 Adelie  Torgersen           39.1          18.7      181    3750 male   2007
#> # … with abbreviated variable names ¹​flipper_length_mm, ²​body_mass_g
```


```r
# Drop all but first column 
penguins[ , -(2:8)]
#> # A tibble: 344 × 1
#>   species
#>   <fct>  
#> 1 Adelie 
#> 2 Adelie 
#> 3 Adelie 
#> 4 Adelie 
#> 5 Adelie 
#> 6 Adelie 
#> # … with 338 more rows
```

You can also select rows or columns by their names. This can be done using the bracket syntax (`[ ]`) or the dollar syntax (`$`). 


```r
pengins[ , "species"]
#> # A tibble: 344 × 1
#>   species
#>   <fct>  
#> 1 Adelie 
#> 2 Adelie 
#> 3 Adelie 
#> 4 Adelie 
#> 5 Adelie 
#> 6 Adelie 
#> # … with 338 more rows
…
Since `penguins` is a tibble, these return different types of object. Subsetting a tibble with bracket syntax will return a tibble, while extracting a column using the dollar syntax returns a vector of values. 

### `filter()` and `select()`

`{dplyr}` has two functions for subsetting, `filter()` subsets by rows and `select()` subsets by column. 

In both functions you list what you would like to retain. Filter and select calls can be piped together to subset based on row and column values. 


```r
penguins %>% 
  select(species, island, body_mass_g)
#> # A tibble: 344 × 3
#>   species island    body_mass_g
#>   <fct>   <fct>           <int>
#> 1 Adelie  Torgersen        3750
#> 2 Adelie  Torgersen        3800
#> 3 Adelie  Torgersen        3250
#> 4 Adelie  Torgersen          NA
#> 5 Adelie  Torgersen        3450
#> 6 Adelie  Torgersen        3650
#> # … with 338 more rows
```
…
Subsetting rows can be inverted by negating the `filter()` statement


```r
penguins %>% 
  select(species, island, body_mass_g) %>% 
  filter(!(body_mass_g > 6000))
#> # A tibble: 340 × 3
#>   species island    body_mass_g
#>   <fct>   <fct>           <int>
#> 1 Adelie  Torgersen        3750
#> 2 Adelie  Torgersen        3800
#> 3 Adelie  Torgersen        3250
#> 4 Adelie  Torgersen        3450
#> 5 Adelie  Torgersen        3650
#> 6 Adelie  Torgersen        3625
#> # … with 334 more rows
```

and dropping columns can done by selecting all columns except the one(s) you want to drop.


```r
penguins %>% 
  select(species, island, body_mass_g) %>% 
  filter(!(body_mass_g > 6000)) %>% 
  select(!c(species, island))
#> # A tibble: 340 × 1
#>   body_mass_g
#>         <int>
#> 1        3750
#> 2        3800
#> 3        3250
#> 4        3450
#> 5        3650
#> 6        3625
#> # … with 334 more rows
```
…
We can fix this by creating a new variable with the factors explicitly coded in the correct order. We also need to specify that we should not drop empty groups as part of `group_by()`. 


```r
tidy_tshirt_levels <- c("XS", "S", "M", "L", "XL", "XXL", NA)

tshirts %>% 
  mutate(size_tidy = factor(size, levels = tidy_tshirt_levels)) %>% 
  group_by(size_tidy, .drop = FALSE ) %>% 
  summarise(count = n())
#> # A tibble: 7 × 2
#>   size_tidy count
#>   <fct>     <int>
#> 1 XS            2
#> 2 S             2
#> 3 M             3
#> 4 L             3
#> 5 XL            0
#> 6 XXL           1
#> # … with 1 more row
```
…
