Chapter 6 Web Scraping | Effective Data Science
…
Applying this to our real scraped data we can easily extract the table of taught courses.

html %>% 
  html_element("table") %>% 
  html_table()
#> # A tibble: 25 × 3
#>   Year      Course                            Role                       
#>   <chr>     <chr>                             <chr>                      
#> 1 "2021-22" Supervised Learning               Lecturer                   
#> 2 ""        Ethics in Data Science I          Lecturer                   
#> 3 ""        Ethics in Data Science II         Lecturer                   
#> 4 "—"       —                                 —                          
#> 5 "2020-21" MATH562/582: Extreme Value Theory Lecturer                   
#> 6 ""        MATH331: Bayesian Inference       Graduate teaching assistant
#> # … with 19 more rows
…
